Mini-Project 2 – Mario Rodriguez
…
Sentiment Analysis of top_100_lyrics

top_100_sentiment <- top_100_lyrics |> 
  mutate(word_count = SentimentAnalysis::analyzeSentiment(lyrics)$"WordCount", 
         sentimentGI = SentimentAnalysis::analyzeSentiment(lyrics)$"SentimentGI"
         )

Resulting Tables

print(top_100, n = 25)

# A tibble: 100 × 5
   placement song_title            artist           weeks_on_chart week_of_chart
       <int> <chr>                 <chr>            <chr>          <date>       
 1         1 Love Somebody         Morgan Wallen    1              2024-11-02   
 2         2 A Bar Song (Tipsy)    Shaboozey        28             2024-11-02   
 3         3 Birds Of A Feather    Billie Eilish    23             2024-11-02   
 4         4 Die With A Smile      Lady Gaga & Bru… 10             2024-11-02   
 5         5 Espresso              Sabrina Carpent… 28             2024-11-02   
 6         6 I Had Some Help       Post Malone Fea… 24             2024-11-02   
 7         7 Lose Control          Teddy Swims      63             2024-11-02   
 8         8 APT.                  ROSE & Bruno Ma… 1              2024-11-02   
 9         9 Taste                 Sabrina Carpent… 9              2024-11-02   
10        10 Beautiful Things      Benson Boone     40             2024-11-02   
11        11 Good Luck, Babe!      Chappell Roan    29             2024-11-02   
12        12 Please Please Please  Sabrina Carpent… 20             2024-11-02   
13        13 Too Sweet             Hozier           31             2024-11-02   
14        14 Not Like Us           Kendrick Lamar   25             2024-11-02   
15        15 Timeless              The Weeknd & Pl… 4              2024-11-02   
16        16 I Am Not Okay         Jelly Roll       19             2024-11-02   
17        17 Lies Lies Lies        Morgan Wallen    16             2024-11-02   
18        18 Hot To Go!            Chappell Roan    21             2024-11-02   
19        19 I Love You, I'm Sorry Gracie Abrams    12             2024-11-02   
20        20 Miles On It           Marshmello & Ka… 25             2024-11-02   
21        21 Million Dollar Baby   Tommy Richman    26             2024-11-02   
22        22 Cowgirls              Morgan Wallen F… 45             2024-11-02   
23        23 Tu Boda               Oscar Maydon & … 1              2024-11-02   
24        24 TGIF                  GloRilla         18             2024-11-02   
25        25 Stargazing            Myles Smith      24             2024-11-02   
# ℹ 75 more rows
…
